Data exploration • nature
…
les questions

survey_questions
#> # A tibble: 97 × 2
#>    code             question                                                    
#>    <chr>            <chr>                                                       
#>  1 Type échantillon 1 - Echantillon RepNat                                      
#>  2 BE1PH            La douleur physique vous empêche-t-elle de faire ce dont vo…
#>  3 BE2PH            Avez-vous besoin d'un traitement médical quotidiennement ?  
#>  4 BE3PS            Aimez-vous votre vie ?                                      
#>  5 BE4SP            Estimez-vous que votre vie a du sens ?                      
#>  6 BE5PS            Êtes-vous capable de vous concentrer ?                      
#>  7 BE6ENV           Vous sentez-vous en sécurité dans votre vie quotidienne ?   
#>  8 BE7ENV           Vivez-vous dans un environnement sain ?                     
#>  9 BE8ENV           Êtes-vous gêné par le bruit là où vous vivez ?              
#> 10 BE9PH            Avez-vous assez d'énergie dans votre vie quotidienne ?      
#> # ℹ 87 more rows
…
Exploration

Calcul indicateurs

indicators <- calculate_indicators(survey_answers)

indicators
#> # A tibble: 2,532 × 15
#>    identifiant_repondant critere_bien_etre_global critere_bien_etre_psy
#>                    <dbl>                    <dbl>                 <dbl>
#>  1                     3                        5                     5
#>  2                     4                        3                     3
#>  3                     5                        4                     4
#>  4                     6                        3                     3
#>  5                     7                        4                     4
#>  6                    10                        4                     4
#>  7                    11                        4                     4
#>  8                    12                        3                     3
#>  9                    14                        2                     2
#> 10                    16                        5                     5
#> # ℹ 2,522 more rows
#> # ℹ 12 more variables: critere_bien_etre_environnement <dbl>,
#> #   critere_bien_etre_physique <dbl>, critere_bien_etre_ressources <dbl>,
#> #   critere_type_nature_global <dbl>, critere_activ_global <dbl>,
#> #   critere_nature_nondomest <dbl>, critere_nature_domestique <dbl>,
#> #   critere_nature_proximite <dbl>, critere_exposition_nature_global <dbl>,
#> #   critere_activ_social_calme <dbl>, critere_activ_sport <dbl>, …
…
